Division,WeightClassKg,Place,Name,Team,BodyweightKg,Best3SquatKg,Best3BenchKg,Best3DeadliftKg,TotalKg,Equipment,Event,Sex
Boys,52,1,Chris Sage,Bryan,49.8,127.01,74.84,158.76,360.61,Single-ply,SBD,M
Boys,52,2,Rushi Patel,College Station,50.71,122.47,65.77,124.74,312.98,Single-ply,SBD,M
Boys,52,3,Desmond Walls,Madisonville,51.44,95.25,63.5,120.2,278.96,Single-ply,SBD,M
Boys,52,4,Osbaldo Esquivel,Bryan,48.63,90.72,70.31,99.79,260.82,Single-ply,SBD,M
Boys,52,5,Juan Padron,Navasota,51.17,90.72,54.43,108.86,254.01,Single-ply,SBD,M
Boys,52,6,Nate Colburn,Montgomery,40.1,92.99,43.09,90.72,226.8,Single-ply,SBD,M
Boys,52,7,Bryce Roundtree,Madisonville,42.82,70.31,43.09,74.84,188.24,Single-ply,SBD,M
Boys,56,1,Taylor Riley,Magnolia,55.25,151.95,92.99,167.83,412.77,Single-ply,SBD,M
Boys,56,2,Ian Campbell,Navasota,55.61,142.88,97.52,131.54,371.95,Single-ply,SBD,M
Boys,56,3,Axel Morfin,Conroe Woodlands College Park,51.89,113.4,72.57,133.81,319.78,Single-ply,SBD,M
Boys,56,4,Tristian McDaniel,Navasota,54.88,90.72,63.5,99.79,254.01,Single-ply,SBD,M
Boys,60,1,James Traylor,Montgomery,58.51,136.08,70.31,163.29,369.68,Single-ply,SBD,M
Boys,60,2,Alex Ellison,Bryan Rudder,58.33,124.74,83.91,142.88,351.53,Single-ply,SBD,M
Boys,60,3,Daniel Gannaway,Madisonville,59.15,131.54,56.7,147.42,335.66,Single-ply,SBD,M
Boys,67.5,1,Jordan Baker,Huntsville,67.13,172.37,106.59,185.97,464.93,Single-ply,SBD,M
Boys,67.5,2,Cameron Nava,Magnolia,66.95,158.76,90.72,174.63,424.11,Single-ply,SBD,M
Boys,67.5,3,JT Abshire,College Station,65.86,181.44,83.91,156.49,421.84,Single-ply,SBD,M
Boys,67.5,4,Asare Kaku,Conroe Woodlands College Park,64.59,136.08,83.91,154.22,374.21,Single-ply,SBD,M
Boys,67.5,5,Chase Gibson,College Station A&M; Cons,63.41,133.81,79.38,147.42,360.61,Single-ply,SBD,M
Boys,67.5,6,Noah Delahoussaye,Montgomery,63.96,142.88,72.57,140.61,356.07,Single-ply,SBD,M
Boys,67.5,7,Jacob Jackson,Conroe Woodlands College Park,63.59,140.61,83.91,129.27,353.8,Single-ply,SBD,M
Boys,67.5,8,Eliseo Reyes,Madisonville,62.05,111.13,83.91,145.15,340.19,Single-ply,SBD,M
Boys,67.5,9,Jon Smallfence,Conroe Woodlands College Park,60.15,97.52,68.04,133.81,299.37,Single-ply,SBD,M
Boys,67.5,10,Andy Gonzales,Madisonville,61.14,108.86,58.97,122.47,290.3,Single-ply,SBD,M
Boys,67.5,DQ,Caleb Hall,Montgomery,66.32,192.78,108.86,,,Single-ply,SBD,M
Boys,75,1,Noah Steptoe,Navasota,72.03,231.33,129.27,204.12,564.72,Single-ply,SBD,M
Boys,75,2,Elvin Martinez,Huntsville,73.94,217.72,111.13,222.26,551.11,Single-ply,SBD,M
Boys,75,3,Braden Tschirhart,College Station,71.58,219.99,124.74,190.51,535.24,Single-ply,SBD,M
Boys,75,4,Humberto Avila,Huntsville,72.85,190.51,102.06,183.7,476.27,Single-ply,SBD,M
Boys,75,5,Austen Smith,College Station A&M; Cons,73.12,147.42,111.13,183.7,442.25,Single-ply,SBD,M
Boys,75,6,Casey Shutt,Bryan Rudder,72.94,142.88,97.52,176.9,417.3,Single-ply,SBD,M
Boys,75,7,Kevin Ramos,Navasota,67.22,154.22,95.25,154.22,403.7,Single-ply,SBD,M
Boys,75,8,Ryan Rios,Navasota,69.13,165.56,99.79,138.35,403.7,Single-ply,SBD,M
Boys,75,9,Caelin Luckie,Bryan,68.13,145.15,90.72,163.29,399.16,Single-ply,SBD,M
Boys,75,10,John Cosino,Navasota,71.67,129.27,72.57,140.61,342.46,Single-ply,SBD,M
Boys,75,11,Jaelys Mitchell,Hearne,69.49,90.72,58.97,106.59,256.28,Single-ply,SBD,M
Boys,82.5,1,Robert Franklin,College Station A&M; Cons,78.56,213.19,131.54,210.92,555.65,Single-ply,SBD,M
Boys,82.5,2,Nathan Ellard,College Station,79.2,208.65,113.4,183.7,505.76,Single-ply,SBD,M
Boys,82.5,3,Trevor Williams,College Station A&M; Cons,78.47,190.51,117.93,188.24,496.68,Single-ply,SBD,M
Boys,82.5,4,Trey Williams,Huntsville,80.83,183.7,117.93,185.97,487.61,Single-ply,SBD,M
Boys,82.5,5,Bradley Bayer,Bryan Rudder,80.65,163.29,97.52,181.44,442.25,Single-ply,SBD,M
Boys,82.5,6,Anthony Acosta,Navasota,77.75,136.08,86.18,145.15,367.41,Single-ply,SBD,M
Boys,82.5,7,Efran Garza,Madisonville,75.57,102.06,88.45,145.15,335.66,Single-ply,SBD,M
Boys,82.5,8,Everett Scott,Hearne,78.2,92.99,54.43,113.4,260.82,Single-ply,SBD,M
Boys,90,1,Mark Wagner,College Station,89.63,188.24,122.47,215.46,526.17,Single-ply,SBD,M
Boys,90,2,Kris Smith,Huntsville,88.63,208.65,111.13,204.12,523.9,Single-ply,SBD,M
Boys,90,3,Tony Tapia,Conroe Woodlands College Park,86.09,192.78,124.74,199.58,517.1,Single-ply,SBD,M
Boys,90,4,Ben Wolz,College Station,88.36,199.58,108.86,192.78,501.22,Single-ply,SBD,M
Boys,90,5,Vaughn Morris,Hempstead,83.64,195.04,102.06,192.78,489.88,Single-ply,SBD,M
Boys,90,6,Ian Morrow,Madisonville,83.19,163.29,108.86,163.29,435.45,Single-ply,SBD,M
Boys,90,7,Royce Gilreath,Bryan,87.45,149.69,102.06,183.7,435.45,Single-ply,SBD,M
Boys,90,8,Edgar Silva,Navasota,87.18,163.29,113.4,154.22,430.91,Single-ply,SBD,M
Boys,90,9,Devin Levias,College Station A&M; Cons,86,158.76,99.79,165.56,424.11,Single-ply,SBD,M
Boys,90,10,Michael Fedotov,Magnolia,88.9,149.69,90.72,176.9,417.3,Single-ply,SBD,M
Boys,90,11,Nathan Shirley,Huntsville,87.91,140.61,88.45,163.29,392.36,Single-ply,SBD,M
Boys,90,12,Chris Sebesta,Snook,88.54,124.74,88.45,154.22,367.41,Single-ply,SBD,M
Boys,90,13,Paul Lopez,Hearne,88.45,131.54,79.38,136.08,347,Single-ply,SBD,M
Boys,90,14,Jose Arjon,Madisonville,84.19,115.67,68.04,145.15,328.85,Single-ply,SBD,M
Boys,90,15,Tyler Baker,Magnolia,86.73,129.27,,142.88,272.16,Single-ply,SD,M
Boys,90,DQ,Charles Le,Madisonville,86.55,151.95,92.99,,,Single-ply,SBD,M
Boys,100,1,Will Efendiev,College Station,96.62,244.94,163.29,226.8,635.03,Single-ply,SBD,M
Boys,100,2,Kevin Leonard,College Station A&M; Cons,94.53,206.38,111.13,210.92,528.44,Single-ply,SBD,M
Boys,100,3,Javier Solano,Conroe Woodlands College Park,93.53,208.65,133.81,183.7,526.17,Single-ply,SBD,M
Boys,100,4,Nickolas Johnson,Bryan Rudder,97.89,208.65,124.74,190.51,523.9,Single-ply,SBD,M
Boys,100,5,Cedric Johnson,Bryan,94.53,204.12,127.01,183.7,514.83,Single-ply,SBD,M
Boys,100,6,Pete Williams,Montgomery,94.71,181.44,113.4,210.92,505.76,Single-ply,SBD,M
Boys,100,7,Michael Rodgers,Hempstead,96.98,170.1,117.93,210.92,498.95,Single-ply,SBD,M
Boys,100,8,Bradley Dorsett,College Station,98.07,183.7,124.74,181.44,489.88,Single-ply,SBD,M
Boys,100,9,Owen Lynch,Montgomery,91.26,170.1,115.67,195.04,480.81,Single-ply,SBD,M
Boys,100,10,Hilario Rodriguez,Navasota,99.16,195.04,104.33,163.29,462.66,Single-ply,SBD,M
Boys,100,11,Dylan Woods,Hearne,96.71,185.97,90.72,161.03,437.72,Single-ply,SBD,M
Boys,100,12,Jake Adams,Huntsville,96.07,163.29,95.25,174.63,433.18,Single-ply,SBD,M
Boys,100,13,Nathaniel Banvelos,Navasota,93.44,151.95,81.65,163.29,396.89,Single-ply,SBD,M
Boys,100,14,Dalton Berel,Magnolia,98.07,142.88,92.99,124.74,360.61,Single-ply,SBD,M
Boys,100,15,Raphael Franco,Madisonville,98.97,124.74,92.99,142.88,360.61,Single-ply,SBD,M
Boys,100,16,Gonzalo Barron,Bryan,93.26,117.93,72.57,124.74,315.25,Single-ply,SBD,M
Boys,110,1,Cristian Contreras,Hearne,106.68,272.16,170.1,272.16,714.41,Single-ply,SBD,M
Boys,110,2,Matthew Reed,Conroe Woodlands College Park,109.04,226.8,124.74,229.06,580.6,Single-ply,SBD,M
Boys,110,3,Cal Bauer,Navasota,103.24,217.72,142.88,217.72,578.33,Single-ply,SBD,M
Boys,110,4,Hunter Grimmett,Montgomery,101.51,201.85,131.54,226.8,560.19,Single-ply,SBD,M
Boys,110,5,Ian Wooley,College Station,101.42,226.8,138.35,192.78,557.92,Single-ply,SBD,M
Boys,110,6,Cole Brumley,Huntsville,107.95,229.06,108.86,199.58,537.51,Single-ply,SBD,M
Boys,110,7,Colten Orsak,Snook,102.97,181.44,97.52,192.78,471.74,Single-ply,SBD,M
Boys,110,8,Andres Espinola,Conroe Woodlands College Park,99.88,158.76,113.4,170.1,442.25,Single-ply,SBD,M
Boys,110,9,Anthony Byrd,Magnolia,105.69,158.76,97.52,181.44,437.72,Single-ply,SBD,M
Boys,110,DQ,Steve Robinson,Madisonville,106.96,170.1,,,,Single-ply,SBD,M
Boys,110,DQ,Brady Roberts,Bryan Rudder,106.32,188.24,,,,Single-ply,SBD,M
Boys,125,1,Jared Spivey,Bryan,116.21,272.16,154.22,217.72,644.1,Single-ply,SBD,M
Boys,125,2,Cameron Pustka,Montgomery,112.67,213.19,120.2,222.26,555.65,Single-ply,SBD,M
Boys,125,3,Shaquan Warren,Bryan Rudder,123.38,199.58,129.27,208.65,537.51,Single-ply,SBD,M
Boys,125,4,Jeramiah Williams,College Station,112.58,215.46,120.2,192.78,528.44,Single-ply,SBD,M
Boys,125,5,Joshua Peoples,Bryan Rudder,121.38,181.44,115.67,226.8,523.9,Single-ply,SBD,M
Boys,125,6,Kyle Herredge,Montgomery,120.11,188.24,102.06,195.04,485.34,Single-ply,SBD,M
Boys,125,7,Jordan Smith,College Station A&M; Cons,110.95,195.04,124.74,156.49,476.27,Single-ply,SBD,M
Boys,125,8,JD Williams,Montgomery,122.65,183.7,102.06,188.24,474,Single-ply,SBD,M
Boys,125,9,Jaun Yanez,Conroe Woodlands College Park,116.39,161.03,104.33,183.7,449.06,Single-ply,SBD,M
Boys,125,10,Justin Delgadillo,Navasota,123.38,199.58,90.72,154.22,444.52,Single-ply,SBD,M
Boys,125,11,David Mejia,Huntsville,120.56,149.69,120.2,170.1,439.98,Single-ply,SBD,M
Boys,125,12,Shemar Barnes,Snook,119.29,158.76,104.33,138.35,401.43,Single-ply,SBD,M
Boys,125,DQ,Stephen Steward,Magnolia,122.47,167.83,111.13,,,Single-ply,SBD,M
Boys,125+,1,Dawson Smith,Huntsville,131.18,283.5,192.78,251.74,728.02,Single-ply,SBD,M
Boys,125+,2,Jordan Seymore,College Station,149.05,317.51,165.56,244.94,728.02,Single-ply,SBD,M
Boys,125+,3,Corey Ross,Navasota,130.91,272.16,188.24,226.8,687.19,Single-ply,SBD,M
Boys,125+,4,De'vonze Franklin,Snook,144.61,208.65,133.81,226.8,569.26,Single-ply,SBD,M
Boys,125+,5,Angel Molina,Navasota,140.34,226.8,122.47,190.51,539.77,Single-ply,SBD,M
Boys,125+,6,Joey McIver,Madisonville,127.01,151.95,117.93,154.22,424.11,Single-ply,SBD,M
Boys,125+,7,Jordan Boatman,Conroe Woodlands College Park,138.35,161.03,90.72,167.83,419.57,Single-ply,SBD,M
Boys,125+,8,Jaquay Thomas,Magnolia,159.48,149.69,92.99,158.76,401.43,Single-ply,SBD,M
Boys,125+,DQ,Derrick Rigby,Huntsville,128.19,215.46,,,,Single-ply,SBD,M
