Event,Sex,Division,WeightClassKg,Best3BenchKg,Bench4Kg,Best3DeadliftKg,Deadlift4Kg,TotalKg,Name,State,Equipment,Place
B,M,Class 1,82.5,160,,,,160,Reynaldo Aguilar,TX,Multi-ply,1
B,M,Class 1,90,150,,,,150,Kris Richard,TX,Single-ply,1
B,M,Class 1,117.5,212.5,,,,212.5,Gregory Brown,TX,Multi-ply,1
B,M,Class 1,117.5,145,,,,145,Isaac Conde,TX,Single-ply,1
B,M,Class 1,140,212.5,,,,212.5,Daniel Mena,TX,Multi-ply,1
B,M,Disabled 2 20-39,117.5,200,212.5,,,200,Matthew Keating,TX,Multi-ply,1
B,M,Disabled 2 60,100,155,,,,155,Vince Breaux,LA,Single-ply,1
B,M,Junior 20-25,67.5,120,,,,120,Trevor Banaszak,TX,Multi-ply,1
B,M,Junior 20-25,82.5,185,,,,185,Matt Griffin,TX,Single-ply,1
B,M,Junior 20-25,90,147.5,,,,147.5,David Villarreal,TX,Multi-ply,1
B,M,Junior 20-25,100,95,,,,95,Roshawn Baines,TX,Single-ply,1
B,M,Junior 20-25,140,212.5,,,,212.5,Daniel Mena,TX,Multi-ply,1
B,M,Law-Fire Open,117.5,255,,,,255,Keithyon Gunter,TX,Multi-ply,1
B,M,Master 40-46,90,182.5,,,,182.5,Joseph Daigle,TX,Multi-ply,1
B,M,Master 47-53,90,167.5,,,,167.5,Patrick Rocha,TX,Multi-ply,1
B,M,Master 54-60,82.5,147.5,,,,147.5,Mark Eichenseer,LA,Single-ply,1
B,M,Master 54-60,90,172.5,,,,172.5,Cody Evans,TX,Single-ply,1
B,M,Master 54-60,110,237.5,,,,237.5,Michael Thomas,TX,Single-ply,1
B,M,Master 54-60,125,227.5,,,,227.5,Enrique Molina,TX,Single-ply,1
B,M,Master 61-67,100,152.5,,,,152.5,Charles Folinus,AZ,Single-ply,1
B,M,Master 68-74,100,155,,,,155,Vince Breaux,LA,Single-ply,1
B,M,Open,75,110,,,,110,Alejandro Barajas,TX,Single-ply,2
B,M,Open,75,232.5,,,,232.5,David R Smith,TX,Single-ply,1
B,M,Open,82.5,115,,,,115,Anthony Jackson,TX,Single-ply,2
B,M,Open,82.5,120,,,,120,Randall Rojas,TX,Single-ply,1
B,M,Open,90,167.5,,,,167.5,Patrick Rocha,TX,Multi-ply,1
B,M,Open,100,210,,,,210,Steven Kaufman,TX,Multi-ply,1
B,M,Open,110,217.5,,,,217.5,Jamail Randle,TX,Single-ply,1
B,M,Special Olympian,48,55,,,,55,Cameron Evans,TX,Single-ply,1
B,M,Submaster 33-39,100,132.5,,,,132.5,Glenn Schmidt,TX,Single-ply,1
B,M,Submaster 33-39,117.5,212.5,,,,212.5,Gregory Brown,TX,Multi-ply,1
B,M,Teen 16-17,52,136.5,,,,136.5,Michael Saldivar,TX,Single-ply,1
D,M,Class 1,90,,,272.5,,272.5,Kris Richard,TX,Single-ply,1
D,M,Class 1,90,,,235,,235,Drew Tucker,TX,Single-ply,2
D,M,Class 1,100,,,182.5,,182.5,Steven Kaufman,TX,Multi-ply,1
D,M,Class 1,110,,,252.5,,252.5,Joseph Felder,TX,Single-ply,1
D,M,Class 1,117.5,,,252.5,,252.5,Isaac Conde,TX,Single-ply,1
D,M,Class 1,140,,,227.5,,227.5,Daniel Mena,TX,Multi-ply,1
D,M,Disabled 2 20-39,117.5,,,220,227.5,220,Matthew Keating,TX,Single-ply,1
D,M,Disabled 2 60,100,,,185,190,185,Vince Breaux,LA,Single-ply,1
D,M,Junior 20-25,67.5,,,197.5,,197.5,Trevor Banaszak,TX,Multi-ply,1
D,M,Junior 20-25,67.5,,,137.5,,137.5,Tyler Lee,TX,Single-ply,1
D,M,Junior 20-25,82.5,,,272.5,,272.5,Matt Griffin,TX,Single-ply,1
D,M,Law-Fire 48-55,100,,,240,,240,Joseph Lee Chaney,TX,Single-ply,1
D,M,Law-Fire Open,117.5,,,320,,320,Keithyon Gunter,TX,Single-ply,1
D,M,Master 47-53,100,,,240,,240,Joseph Lee Chaney,TX,Single-ply,1
D,M,Master 54-60,82.5,,,237.5,240,237.5,Mark Eichenseer,LA,Single-ply,1
D,M,Master 61-67,100,,,200.5,,200.5,Charles Folinus,AZ,Single-ply,1
D,M,Master 68-74,100,,,185,190,185,Vince Breaux,LA,Single-ply,1
D,M,Open,75,,,230,,230,Alejandro Barajas,TX,Single-ply,1
D,M,Open,75,,,197.5,,197.5,Joe Bocanegra,TX,Single-ply,2
D,M,Open,82.5,,,212.5,,212.5,Anthony Jackson,TX,Single-ply,3
D,M,Open,82.5,,,215,,215,Daniel Nieves,TX,Single-ply,2
D,M,Open,82.5,,,227.5,,227.5,Randall Rojas,TX,Single-ply,1
D,M,Open,90,,,242.5,,242.5,Donnie Brumley,TX,Single-ply,1
D,M,Open,100,,,182.5,,182.5,Steven Kaufman,TX,Multi-ply,1
D,M,Open,110,,,250,,250,Jamail Randle,TX,Single-ply,1
D,M,Submaster 33-39,90,,,222.5,,222.5,Mohammad Nagani,TX,Single-ply,1
D,M,Teen 14-15,82.5,,,145,,145,Brandon Rueda,TX,Single-ply,1
D,M,Teen 14-15,90,,,183,,183,Luis Molina,TX,Single-ply,1
D,M,Teen 14-15,100,,,220,,220,Wesley Luce,TX,Single-ply,1
D,M,Teen 14-15,110,,,205,,205,Tanner Morgan,TX,Single-ply,1
D,M,Teen 16-17,67.5,,,137.5,,137.5,Cody Brown,TX,Single-ply,1
BD,M,Class 1,90,150,,272.5,,422.5,Kris Richard,TX,Single-ply,1
BD,M,Disabled 2 60,100,155,,185,190,340,Vince Breaux,LA,Single-ply,1
BD,M,Junior 20-25,82.5,185,,272.5,,457.5,Matt Griffin,TX,Single-ply,1
BD,M,Junior 20-25,67.5,120,,197.5,,317.5,Trevor Banaszak,TX,Multi-ply,1
BD,M,Master 54-60,82.5,147.5,,237.5,240,385,Mark Eichenseer,LA,Single-ply,1
BD,M,Master 61-67,100,152.5,,200.5,,353,Charles Folinus,AZ,Single-ply,1
BD,M,Master 68-74,100,155,,185,190,340,Vince Breaux,LA,Single-ply,1
BD,M,Open,100,210,,182.5,,392.5,Steven Kaufman,TX,Multi-ply,1
B,F,Class 1,90,60,,,,60,Lauren Knott,TX,Single-ply,1
B,F,Master 40-46,56,55,,,,55,Cara Fong,TX,Single-ply,1
B,F,Open,56,80,,,,80,Amparo Barajas,TX,Single-ply,1
B,F,Open,67.5,57.5,,,,57.5,Larissa Arnold,TX,Single-ply,2
B,F,Open,67.5,92.5,,,,92.5,Stacie Wallace,TX,Single-ply,1
B,F,Teen 16-17,60,85,90,,,85,Eda Hnatek,TX,Single-ply,1
D,F,Class 1,90,,,125,,125,Lauren Knott,TX,Single-ply,1
D,F,Junior,100,,,127.5,,127.5,Jazmine Hawkins,TX,Single-ply,1
D,F,Master 40-46,56,,,105,,105,Cara Fong,TX,Single-ply,1
D,F,Master 40-46,67.5,,,115,,115,Tasjah Hall,TX,Single-ply,1
D,F,Master 40-46,75,,,147.5,,147.5,Adriane Harris,TX,Single-ply,1
D,F,Master 40-46,90+,,,127.5,,127.5,Denise Hodge,TX,Single-ply,1
D,F,Master 47-53,56,,,117.5,,117.5,Felicia Sexton,TX,Single-ply,1
D,F,Open,56,,,145,,145,Amparo Barajas,TX,Single-ply,1
D,F,Open,67.5,,,147.5,,147.5,Larissa Arnold,TX,Single-ply,2
D,F,Open,67.5,,,155,,155,Stacie Wallace,TX,Single-ply,1
D,F,Open,75,,,170,,170,Elizabeth Fuentes,TX,Single-ply,1
D,F,Submaster,100,,,160,,160,Nichelle Gibbs,TX,Single-ply,1
D,F,Teen 16-17,60,,,130,,130,Eda Hnatek,TX,Single-ply,1
