Division,WeightClassKg,Place,Name,Team,BodyweightKg,Best3SquatKg,Best3BenchKg,Best3DeadliftKg,TotalKg,Equipment,Event,Sex
Boys,56,1,Josh Pennington,Orangefield,53.98,111.13,63.5,102.06,276.69,Single-ply,SBD,M
Boys,56,DQ,Gavin Ihle,Orange Little Cypress-Mauriceville,55.34,83.91,49.9,83.91,,Single-ply,SBD,M
Boys,60,DQ,Deshawn Holt,West Orange-Stark,56.7,120.2,63.5,129.27,,Single-ply,SBD,M
Boys,67.5,1,Malech Edwards,West Orange-Stark,67.13,151.95,97.52,165.56,415.04,Single-ply,SBD,M
Boys,67.5,2,Samuel Ruggles,Silsbee,67.13,140.61,90.72,145.15,376.48,Single-ply,SBD,M
Boys,67.5,3,Chris McGilberry,Silsbee,62.14,136.08,90.72,138.35,365.14,Single-ply,SBD,M
Boys,67.5,4,Dustin Forrester,Orange Little Cypress-Mauriceville,63.05,111.13,70.31,154.22,335.66,Single-ply,SBD,M
Boys,67.5,DQ,Zach Lopez,Orange Little Cypress-Mauriceville,63.96,86.18,74.84,88.45,,Single-ply,SBD,M
Boys,67.5,DQ,Blake Marshall,Silsbee,61.69,,,,,Single-ply,SBD,M
Boys,67.5,DQ,Taylor Smith,Silsbee,64.41,131.54,70.31,142.88,,Single-ply,SBD,M
Boys,67.5,DQ,Jayzin Robinson,West Orange-Stark,61.23,92.99,61.23,122.47,,Single-ply,SBD,M
Boys,67.5,DQ,Daniel Ketchum,West Orange-Stark,66.68,81.65,61.23,111.13,,Single-ply,SBD,M
Boys,67.5,DQ,Cade Datillio,Orangefield,63.5,,,,,Single-ply,SBD,M
Boys,75,1,Victor Davilla,Orange Little Cypress-Mauriceville,74.84,151.95,108.86,174.63,435.45,Single-ply,SBD,M
Boys,75,2,David Andersen,Silsbee,74.84,142.88,117.93,149.69,410.5,Single-ply,SBD,M
Boys,75,3,Ehson Zare,Silsbee,74.84,142.88,92.99,172.37,408.23,Single-ply,SBD,M
Boys,75,DQ,Jonathan Ramriez,West Orange-Stark,74.39,102.06,56.7,136.08,,Single-ply,SBD,M
Boys,75,DQ,William Janice,West Orange-Stark,73.03,113.4,79.38,136.08,,Single-ply,SBD,M
Boys,75,DQ,Kayvn Cooper,West Orange-Stark,72.57,120.2,70.31,124.74,,Single-ply,SBD,M
Boys,75,DQ,Adam Carrell,Silsbee,73.48,108.86,83.91,136.08,,Single-ply,SBD,M
Boys,75,DQ,Cameron Guillot,Orangefield,74.84,,,,,Single-ply,SBD,M
Boys,82.5,1,Hunter Fontenot,Orange Little Cypress-Mauriceville,81.19,204.12,131.54,208.65,544.31,Single-ply,SBD,M
Boys,82.5,2,Alex Reed,Orange Little Cypress-Mauriceville,78.47,204.12,122.47,213.19,539.77,Single-ply,SBD,M
Boys,82.5,3,Torian Burnett,West Orange-Stark,80.74,149.69,106.59,206.38,462.66,Single-ply,SBD,M
Boys,82.5,4,Joseph Hutcherson,Silsbee,82.1,136.08,88.45,154.22,378.75,Single-ply,SBD,M
Boys,82.5,DQ,Zach Zimmerman,Silsbee,77.11,142.88,79.38,142.88,,Single-ply,SBD,M
Boys,82.5,DQ,Demaric Judge,West Orange-Stark,79.83,,,,,Single-ply,SBD,M
Boys,90,1,Keyshawn Holman,West Orange-Stark,82.55,165.56,106.59,206.38,478.54,Single-ply,SBD,M
Boys,90,2,Trenton Brown,Orange Little Cypress-Mauriceville,88.9,165.56,104.33,183.7,453.59,Single-ply,SBD,M
Boys,90,DQ,McCoy Head,Orange Little Cypress-Mauriceville,85.28,115.67,54.43,106.59,,Single-ply,SBD,M
Boys,90,DQ,Cody Duncan,Silsbee,88.9,158.76,90.72,158.76,,Single-ply,SBD,M
Boys,100,1,Austin Moore,Orangefield,92.53,260.82,181.44,226.8,669.05,Single-ply,SBD,M
Boys,100,2,Brandon Bray,Orangefield,90.72,219.99,113.4,197.31,530.7,Single-ply,SBD,M
Boys,100,3,Jabari Gooch,Silsbee,99.79,170.1,108.86,215.46,494.42,Single-ply,SBD,M
Boys,100,4,Marquell Hale,Silsbee,90.72,183.7,117.93,165.56,467.2,Single-ply,SBD,M
Boys,100,5,Lucas Russell,Orange Little Cypress-Mauriceville,90.72,183.7,92.99,190.51,467.2,Single-ply,SBD,M
Boys,100,6,Daniel Grant,Silsbee,99.34,136.08,104.33,181.44,421.84,Single-ply,SBD,M
Boys,100,7,Nick Lockwood,Orange Little Cypress-Mauriceville,91.63,124.74,,145.15,269.89,Single-ply,SD,M
Boys,100,DQ,Ja'Qualan Coleman,West Orange-Stark,94.8,147.42,102.06,185.97,,Single-ply,SBD,M
Boys,110,1,Garrett Johnson,Orange Little Cypress-Mauriceville,107.5,235.87,138.35,197.31,571.53,Single-ply,SBD,M
Boys,110,2,Adam Jacobs,Orangefield,106.59,199.58,129.27,188.24,517.1,Single-ply,SBD,M
Boys,110,3,Jake Bradley,Orangefield,102.97,185.97,124.74,197.31,508.02,Single-ply,SBD,M
Boys,110,4,Tristen Scott,West Orange-Stark,104.33,161.03,127.01,199.58,487.61,Single-ply,SBD,M
Boys,110,5,Jacob Harrison,Orangefield,104.33,176.9,111.13,176.9,464.93,Single-ply,SBD,M
Boys,110,DQ,Gavin Weaver,Silsbee,108.86,136.08,97.52,145.15,,Single-ply,SBD,M
Boys,110,DQ,Gabe Dupuy,Orange Little Cypress-Mauriceville,103.42,,72.57,117.93,,Single-ply,SBD,M
Boys,110,DQ,Ja'Corey Brady,West Orange-Stark,106.59,136.08,88.45,133.81,,Single-ply,SBD,M
Boys,110,DQ,Bobby Rash,West Orange-Stark,100.7,156.49,108.86,165.56,,Single-ply,SBD,M
Boys,125,1,Keyshawn Davis,Silsbee,115.21,179.17,138.35,172.37,489.88,Single-ply,SBD,M
Boys,125,2,Dakota Ard,Silsbee,120.66,181.44,95.25,190.51,467.2,Single-ply,SBD,M
Boys,125,3,Grant Leceaur,Orange Little Cypress-Mauriceville,110.68,170.1,106.59,183.7,460.4,Single-ply,SBD,M
Boys,125,DQ,Ryan Davilla,Orange Little Cypress-Mauriceville,112.04,147.42,95.25,158.76,,Single-ply,SBD,M
Boys,125,DQ,Colt LeBleau,Orange Little Cypress-Mauriceville,122.92,172.37,115.67,183.7,,Single-ply,SBD,M
Boys,125,DQ,Johnathan Hageon,Silsbee,113.4,,,,,Single-ply,SBD,M
Boys,125,DQ,Adrik Mims,West Orange-Stark,122.47,136.08,,142.88,,Single-ply,SBD,M
Boys,125+,1,Jeremiah Armstrong,Orange Little Cypress-Mauriceville,140.61,226.8,158.76,240.4,625.96,Single-ply,SBD,M
Boys,125+,2,Aaron Galitz,Orangefield,141.07,201.85,158.76,206.38,566.99,Single-ply,SBD,M
Boys,125+,3,Chris Dyson,Orange Little Cypress-Mauriceville,151.95,181.44,81.65,154.22,417.3,Single-ply,SBD,M
Boys,125+,4,Luke Padilla,Orangefield,158.76,188.24,138.35,,326.59,Single-ply,SB,M
